{
    "defaultSeverity": "error",
    "extends": [
        "tslint-config-airbnb", "tslint-config-prettier"
    ],
    "jsRules": {},
    "rules": {
        "import-name": false,
        "variable-name": false
    },
    "rulesDirectory": []
}
